{
    "AF": 0,
    "effect": [
        "coding_sequence_variant",
        "chromosome",
        "coding_sequence_variant",
        "inframe_insertion",
        "disruptive_inframe_insertion",
        "inframe_deletion",
        "disruptive_inframe_deletion",
        "downstream_gene_variant",
        "exon_variant",
        "exon_loss_variant",
        "frameshift_variant",
        "gene_variant",
        "intergenic_region",
        "conserved_intergenic_variant",
        "intragenic_variant",
        "intron_variant",
        "conserved_intron_variant",
        "miRNA",
        "missense_variant",
        "initiator_codon_variant",
        "stop_retained_variant",
        "rare_amino_acid_variant",
        "splice_acceptor_variant",
        "splice_donor_variant",
        "splice_region_variant",
        "stop_lost",
        "5_prime_UTR_premature start_codon_gain_variant",
        "start_lost",
        "stop_gained",
        "synonymous_variant",
        "start_retained",
        "stop_retained_variant",
        "transcript_variant",
        "regulatory_region_variant",
        "upstream_gene_variant",
        "3_prime_UTR_variant",
        "3_prime_UTR_truncation",
        "5_prime_UTR_variant",
        "5_prime_UTR_truncation",
        "sequence_feature",
        "non_coding_exon_variant",
        "non_coding_transcript_variant",
        "5_prime_UTR_premature_start_codon_gain_variant"
    ],
    "pos": [
        [
            1,
            "end"
        ]
    ],
    "qual": 0,
    "TVOTES": 2,
    "impact": [
        "HIGH",
        "MODERATE"
    ],
    "warnings": [],
    "DP": 0
}
