{
	"USE_INTERVAL":"False",
	"sub_dir": "calling/{sample}",
	"interval":{"start":"35800", "end":"38000"},
	"interval_name":"EBNA_2",
	"interval_mapper":"bbmap",
	"exe": {
		"samtools":"samtools",
		"bedtools":"bedtools",
		"bcftools":"bcftools",
		"vcfutils.pl":"vcfutils.pl",
		"GATK":"java -Xmx128G -jar /home/cegg/loetscha/software/GATK-3.8/GenomeAnalysisTK.jar",
		"picard":"picard",
		"fastq2fasta":"fastq2fasta.py",
		"filter_vcf_max_rank":"filter_vcf_max_rank.py",
		"lofreq":"lofreq",
		"freebayes":"freebayes",
		"SNVerIndividual":"SNVerIndividual",
		"VarScan2":"VarScan2",
		"snver_merge_snp_indel_files":"snver_merge_snp_indel_files.py",
		"varscan_merge_snp_indel_files":"varscan_merge_snp_indel_files.py",
		"patch":"patch_vcf_at_interval.py",
		"snpEff":"snpEff",
		"rank_variants":"rank_variants.py",
		"annotate_vcf":"annotate_vcf_samtools_v2.py",
		"vcfbreakmulti":"vcfbreakmulti",
		"vcfallelicprimitives":"vcfallelicprimitives",
		"extract_coord_vcf":"extract_coord_vcf.py",
		"merge_vcf_cut_genes":"merge_vcf_cut_genes.py",
		"trimmomatic":"trimmomatic",
		"tagdust":"tagdust",
		"cdhitdup":"cd-hit-dup",
		"bwa":"bwa",
		"bowtie2":"bowtie2",
		"bbmap":"bbmap"
	},
	"min_seed_len":"41",
	"min_read_len":"50"

}
